…
# show the results of filtering at each step
result$filter_process
#> # A tibble: 30 × 2
#>    filter                                                                  count
#>    <chr>                                                                   <int>
#>  1 Situation possible injury                                                   5
#>  2 911 calls                                                                   5
#>  3 Transports                                                                  5
#>  4 GCS Motor 1-5                                                               5
#>  5 Breath sounds absent, decreased, increased respiratory effort               5
#>  6 Flail segment, retraction, accessory muscles used in breathing              5
#>  7 Respiratory effort apneic, labored, mech. assist, rapid, shallow, weak…     5
#>  8 Airway management procedures                                                5
#>  9 Pulse oximetry < 90                                                         5
#> 10 SBP < 110                                                                   5
#> # ℹ 20 more rows
```
